{
    "version": "1.0.0",
    "summary": "helpful summary of your project, less than 80 characters",
    "repository": "https://github.com/user/project.git",
    "license": "BSD3",
    "source-directories": [
        "."
    ],
    "exposed-modules": [],
    "dependencies": {
        "NoRedInk/elm-decode-pipeline": "3.0.0 <= v < 4.0.0",
        "arturopala/elm-monocle": "1.6.0 <= v < 2.0.0",
        "danyx23/elm-uuid": "2.1.1 <= v < 3.0.0",
        "elm-community/material-icons": "1.1.0 <= v < 2.0.0",
        "elm-lang/core": "5.1.1 <= v < 6.0.0",
        "elm-lang/html": "2.0.0 <= v < 3.0.0",
        "elm-lang/navigation": "2.1.0 <= v < 3.0.0",
        "folkertdev/elm-state": "3.0.0 <= v < 4.0.0",
        "mgold/elm-random-pcg": "5.0.2 <= v < 6.0.0",
        "rundis/elm-bootstrap": "4.0.0 <= v < 5.0.0"
    },
    "elm-version": "0.18.0 <= v < 0.19.0"
}
